…
    personas <- CYTARPersonas$new()
    self <- personas
    personas$loadData()
    #> Warning: 3 parsing failures.
    #>    row        col  expected             actual                       file
    #> 184049 NA         6 columns 3 columns          '~/.R/CYTAR//personas.csv'
    #> 184050 persona_id a double   SANCHEZ VILLAGRAN '~/.R/CYTAR//personas.csv'
    #> 184050 NA         6 columns 4 columns          '~/.R/CYTAR//personas.csv'
    #> # A tibble: 185,618 x 6
    #>    persona_id nombre           apellido      sexo_id  edad cvar_ultimo_acceso
    #>         <dbl> <chr>            <chr>           <dbl> <dbl> <date>            
    #>  1          1 JUAN PABLO       SOTO                2    44 2017-11-29        
    #>  2          2 SILVINA          GONZALEZ            1    36 2012-02-06        
    #>  3          3 DIEGO FERNANDO   ASENSIO             2    46 2018-09-20        
    #>  4          4 MARÍA VICTORIA   TIGNINO             1    37 2019-04-24        
    #>  5          5 CLAUDIA LEDA     MATTEO              1    55 2018-09-02        
    #>  6          6 EDUARDO          SPOTORNO            2    51 2011-11-07        
    #>  7          7 PATRICIO LEANDRO ACOSTA              2    38 2018-09-05        
    #>  8          8 EDUARDO AUGUSTO  WAGENER SEGUÍ       2    70 2013-08-28        
    #>  9          9 ANDRES MARIANO   RUIZ                2    68 2016-09-05        
    #> 10         10 SERGIO NESTOR    SANTILLANA          2    59 2019-06-24        
    #> # … with 185,608 more rows
    nrow(personas$data)
    #> [1] 185618


    personas.2018 <- CYTARPersonas2018$new()
    self <- personas.2018
    personas.2018$loadData()
    #> # A tibble: 68,552 x 21
    #>    persona_id  anio sexo_id  edad maximo_grado_ac… disciplina_maxi…
    #>         <int> <int>   <int> <int>            <int>            <int>
    #>  1          1  2018       2    43               -1               -1
    #>  2          5  2018       1    55                1              255
    #>  3          7  2018       2    37                1              158
    #>  4         10  2018       2    58                5              248
    #>  5         11  2018       1    46                2              223
    #>  6         12  2018       2    55                1               58
    #>  7         13  2018       2    48                3              281
    #>  8         15  2018       1    53                1              258
    #>  9         17  2018       2    60                2              281
    #> 10         19  2018       2    59                1              255
    #> # … with 68,542 more rows, and 15 more variables:
    #> #   disciplina_titulo_grado_id <int>, disciplina_experticia_id <int>,
    #> #   tipo_personal_id <int>, producciones_ult_anio <int>,
    #> #   producciones_ult_2_anios <int>, producciones_ult_3_anios <int>,
    #> #   producciones_ult_4_anios <int>, institucion_trabajo_id <int>,
    #> #   seniority_level <chr>, categoria_conicet_id <int>,
    #> #   categoria_incentivos <int>, max_dedicacion_horaria_docente_id <int>,
    #> #   institucion_cargo_docente_id <int>, clase_cargo_docente_id <int>,
    #> #   tipo_condicion_docente_id <int>
    nrow(personas.2018$data)
    #> [1] 68552
    personas.2018$consolidate()
    #> Warning: 3 parsing failures.
    #>    row        col  expected             actual                       file
    #> 184049 NA         6 columns 3 columns          '~/.R/CYTAR//personas.csv'
    #> 184050 persona_id a double   SANCHEZ VILLAGRAN '~/.R/CYTAR//personas.csv'
    #> 184050 NA         6 columns 4 columns          '~/.R/CYTAR//personas.csv'
    #> # A tibble: 68,552 x 21
    #>    persona_id  anio sexo_id  edad maximo_grado_ac… disciplina_maxi…
    #>         <int> <int>   <int> <int>            <int>            <int>
    #>  1          1  2018       2    43               -1               -1
    #>  2          5  2018       1    55                1              255
    #>  3          7  2018       2    37                1              158
    #>  4         10  2018       2    58                5              248
    #>  5         11  2018       1    46                2              223
    #>  6         12  2018       2    55                1               58
    #>  7         13  2018       2    48                3              281
    #>  8         15  2018       1    53                1              258
    #>  9         17  2018       2    60                2              281
    #> 10         19  2018       2    59                1              255
    #> # … with 68,542 more rows, and 15 more variables:
    #> #   disciplina_titulo_grado_id <int>, disciplina_experticia_id <int>,
    #> #   tipo_personal_id <int>, producciones_ult_anio <int>,
    #> #   producciones_ult_2_anios <int>, producciones_ult_3_anios <int>,
    #> #   producciones_ult_4_anios <int>, institucion_trabajo_id <int>,
    #> #   seniority_level <chr>, categoria_conicet_id <int>,
    #> #   categoria_incentivos <int>, max_dedicacion_horaria_docente_id <int>,
    #> #   institucion_cargo_docente_id <int>, clase_cargo_docente_id <int>,
    #> #   tipo_condicion_docente_id <int>
…
